-- Merging decision tree log ---
manifest
ADDED from C:\Android\Projects\maiv_station\otosstation\libAlertDialog\src\main\AndroidManifest.xml:1:1-9:12
INJECTED from C:\Android\Projects\maiv_station\otosstation\libAlertDialog\src\main\AndroidManifest.xml:1:1-9:12
INJECTED from C:\Android\Projects\maiv_station\otosstation\libAlertDialog\src\main\AndroidManifest.xml:1:1-9:12
INJECTED from C:\Android\Projects\maiv_station\otosstation\libAlertDialog\src\main\AndroidManifest.xml:1:1-9:12
INJECTED from C:\Android\Projects\maiv_station\otosstation\libAlertDialog\src\main\AndroidManifest.xml:1:1-9:12
INJECTED from C:\Android\Projects\maiv_station\otosstation\libAlertDialog\src\main\AndroidManifest.xml:1:1-9:12
INJECTED from C:\Android\Projects\maiv_station\otosstation\libAlertDialog\src\main\AndroidManifest.xml:1:1-9:12
	package
		ADDED from C:\Android\Projects\maiv_station\otosstation\libAlertDialog\src\main\AndroidManifest.xml:2:1-31
		INJECTED from C:\Android\Projects\maiv_station\otosstation\libAlertDialog\src\main\AndroidManifest.xml
		INJECTED from C:\Android\Projects\maiv_station\otosstation\libAlertDialog\src\main\AndroidManifest.xml
	android:versionName
		ADDED from C:\Android\Projects\maiv_station\otosstation\libAlertDialog\src\main\AndroidManifest.xml:4:1-26
		INJECTED from C:\Android\Projects\maiv_station\otosstation\libAlertDialog\src\main\AndroidManifest.xml
		INJECTED from C:\Android\Projects\maiv_station\otosstation\libAlertDialog\src\main\AndroidManifest.xml
	xmlns:android
		ADDED from C:\Android\Projects\maiv_station\otosstation\libAlertDialog\src\main\AndroidManifest.xml:1:11-69
	android:versionCode
		ADDED from C:\Android\Projects\maiv_station\otosstation\libAlertDialog\src\main\AndroidManifest.xml:3:1-24
		INJECTED from C:\Android\Projects\maiv_station\otosstation\libAlertDialog\src\main\AndroidManifest.xml
		INJECTED from C:\Android\Projects\maiv_station\otosstation\libAlertDialog\src\main\AndroidManifest.xml
application
ADDED from C:\Android\Projects\maiv_station\otosstation\libAlertDialog\src\main\AndroidManifest.xml:6:1-7:7
uses-sdk
INJECTED from C:\Android\Projects\maiv_station\otosstation\libAlertDialog\src\main\AndroidManifest.xml reason: use-sdk injection requested
INJECTED from C:\Android\Projects\maiv_station\otosstation\libAlertDialog\src\main\AndroidManifest.xml
INJECTED from C:\Android\Projects\maiv_station\otosstation\libAlertDialog\src\main\AndroidManifest.xml
	android:minSdkVersion
		INJECTED from C:\Android\Projects\maiv_station\otosstation\libAlertDialog\src\main\AndroidManifest.xml
		ADDED from C:\Android\Projects\maiv_station\otosstation\libAlertDialog\src\main\AndroidManifest.xml
		INJECTED from C:\Android\Projects\maiv_station\otosstation\libAlertDialog\src\main\AndroidManifest.xml
